[gd_scene load_steps=5 format=2]

[ext_resource path="res://blokoj/title_screen/Item_Icons/Профиль1.png" type="Texture" id=1]
[ext_resource path="res://blokoj/title_screen/Menu/fonts/Buttons_stylel.tres" type="StyleBox" id=4]
[ext_resource path="res://blokoj/title_screen/Menu/Scripts/StartGame.gd" type="Script" id=5]


[sub_resource type="DynamicFont" id=1]

[node name="Account" type="Button"]
margin_right = 52.0
margin_bottom = 52.0
rect_min_size = Vector2( 50, 50 )
custom_styles/focus = ExtResource( 4 )
custom_fonts/font = SubResource( 1 )
shortcut_in_tooltip = false
icon = ExtResource( 1 )
script = ExtResource( 5 )
__meta__ = {
"_edit_group_": true,
"_edit_use_anchors_": false
}
load_scene = "res://blokoj/title_screen/Menu/scene/Account.tscn"
