[gd_scene load_steps=2 format=2]

[ext_resource path="res://blokoj/title_screen/Menu/scene/Scene_page.tscn" type="PackedScene" id=1]

[node name="Tasks" instance=ExtResource( 1 )]

[node name="Label" parent="." index="0"]
text = "Task Scene"
